musteucl4.vcd
$date
     Jul 04, 2024       16:52:52
$end

$version
 SystemC 2.3.4-Accellera --- Jul  1 2024 10:23:18
$end

$timescale
     1 ps
$end

$scope module SystemC $end
$var wire    1  aaaaa  clock       $end
$var wire    1  aaaab  x       $end
$var wire    1  aaaac  x_bar       $end
$var wire    1  aaaad  x1       $end
$var wire    1  aaaae  x1_bar       $end
$var wire    1  aaaaf  x2       $end
$var wire    1  aaaag  x2_bar       $end
$var wire    1  aaaah  x3       $end
$var wire    1  aaaai  x3_bar       $end
$var wire    1  aaaaj  x4       $end
$var wire    1  aaaak  x4_bar       $end
$var wire    1  aaaal  y       $end
$var wire    1  aaaam  y_bar       $end
$var wire    1  aaaan  y1       $end
$var wire    1  aaaao  y1_bar       $end
$var wire    1  aaaap  y2       $end
$var wire    1  aaaaq  y2_bar       $end
$var wire    1  aaaar  u       $end
$var wire    1  aaaas  u_bar       $end
$var wire    1  aaaat  v       $end
$var wire    1  aaaau  v_bar       $end
$var wire    1  aaabb  z       $end
$var wire    1  aaabc  z_bar       $end
$var wire   32  aaabd  x_int [31:0]  $end
$var wire   32  aaabe  y_int [31:0]  $end
$var wire    1  aaabf  lead       $end
$var wire    1  aaabg  loop       $end
$var wire    1  aaabh  trail       $end
$scope module addx $end
$var wire    1  aaaav  c       $end
$var wire    1  aaaaw  c_bar       $end
$upscope $end
$scope module addy $end
$var wire    1  aaaax  c       $end
$var wire    1  aaaay  c_bar       $end
$upscope $end
$scope module addz $end
$var wire    1  aaaaz  c       $end
$var wire    1  aaaba  c_bar       $end
$upscope $end
$upscope $end
$enddefinitions  $end

$comment
All initial values are dumped below at time 0 sec = 0 timescale units.
$end

$dumpvars
1aaaaa
0aaaab
1aaaac
0aaaad
1aaaae
0aaaaf
1aaaag
0aaaah
1aaaai
0aaaaj
1aaaak
0aaaal
1aaaam
0aaaan
1aaaao
0aaaap
1aaaaq
1aaaar
1aaaas
0aaaat
0aaaau
0aaaav
0aaaaw
0aaaax
1aaaay
0aaaaz
1aaaba
0aaabb
0aaabc
b0 aaabd
b0 aaabe
1aaabf
0aaabg
0aaabh
$end

#5000
0aaaaa

#10000
1aaaaa
1aaaau
0aaaba
1aaabc

#15000
0aaaaa

#20000
1aaaaa
1aaabb

#25000
0aaaaa

#30000
1aaaaa
1aaaba
0aaabc

#35000
0aaaaa

#40000
1aaaaa
1aaaab
0aaaac
1aaaad
0aaaae
1aaabc

#45000
0aaaaa

#50000
1aaaaa
0aaaab
1aaaac
0aaaad
1aaaae
1aaaaf
0aaaag
0aaaar
0aaaas
1aaaaw

#55000
0aaaaa

#60000
1aaaaa
0aaaaf
1aaaag
1aaaah
0aaaai
1aaaar

#65000
0aaaaa

#70000
1aaaaa
0aaaah
1aaaai
1aaaaj
0aaaak
0aaabb
0aaabc

#75000
0aaaaa

#80000
1aaaaa
0aaaaj
1aaaak
1aaabb

#85000
0aaaaa

#90000
1aaaaa
0aaaar
1aaaas
1aaaav
0aaaaw
0aaabf
1aaabg

#95000
0aaaaa

#100000
1aaaaa

#105000
0aaaaa

#110000
1aaaaa
0aaabb
1aaabc

#115000
0aaaaa

#120000
1aaaaa

#125000
0aaaaa

#130000
1aaaaa
0aaabg
1aaabh

#135000
0aaaaa

#140000
1aaaaa

#145000
0aaaaa

#150000
1aaaaa

#155000
0aaaaa

#160000
1aaaaa

#165000
0aaaaa

#170000
1aaaaa

#175000
0aaaaa

#180000
1aaaaa

#185000
0aaaaa

#190000
1aaaaa

#195000
0aaaaa

#200000
1aaaaa

#205000
0aaaaa

#210000
1aaaaa

#215000
0aaaaa

#220000
1aaaaa
b1 aaabd
1aaabf
0aaabh

#225000
0aaaaa

#230000
1aaaaa

#235000
0aaaaa

#240000
1aaaaa

#245000
0aaaaa

#250000
1aaaaa

#255000
0aaaaa

#260000
1aaaaa
1aaaab
0aaaac
1aaaad
0aaaae

#265000
0aaaaa

#270000
1aaaaa
0aaaab
1aaaac
0aaaad
1aaaae
1aaaaf
0aaaag
1aaaar
0aaaas
0aaaav
1aaaaw

#275000
0aaaaa

#280000
1aaaaa
0aaaaf
1aaaag
1aaaah
0aaaai

#285000
0aaaaa

#290000
1aaaaa
0aaaah
1aaaai
1aaaaj
0aaaak
1aaabb
0aaabc

#295000
0aaaaa

#300000
1aaaaa
0aaaaj
1aaaak

#305000
0aaaaa

#310000
1aaaaa
1aaaab
0aaaac
1aaaad
0aaaae
0aaaar
1aaaas
1aaaav
0aaaaw
0aaabf
1aaabg

#315000
0aaaaa

#320000
1aaaaa
0aaaab
1aaaac
0aaaad
1aaaae
1aaaaf
0aaaag
1aaaar
0aaaas
0aaaav
1aaaaw

#325000
0aaaaa

#330000
1aaaaa
0aaaaf
1aaaag
1aaaah
0aaaai
0aaabb
1aaabc

#335000
0aaaaa

#340000
1aaaaa
0aaaah
1aaaai
1aaaaj
0aaaak
1aaabb
0aaabc

#345000
0aaaaa

#350000
1aaaaa
0aaaaj
1aaaak
0aaabg
1aaabh

#355000
0aaaaa

#360000
1aaaaa
0aaaar
1aaaas
1aaaav
0aaaaw

#365000
0aaaaa

#370000
1aaaaa

#375000
0aaaaa

#380000
1aaaaa
0aaabb
1aaabc

#385000
0aaaaa

#390000
1aaaaa

#395000
0aaaaa

#400000
1aaaaa

#405000
0aaaaa

#410000
1aaaaa

#415000
0aaaaa

#420000
1aaaaa

#425000
0aaaaa

#430000
1aaaaa

#435000
0aaaaa

#440000
1aaaaa
b1 aaabe
1aaabf
0aaabh

#445000
0aaaaa

#450000
1aaaaa

#455000
0aaaaa

#460000
1aaaaa

#465000
0aaaaa

#470000
1aaaaa

#475000
0aaaaa

#480000
1aaaaa
1aaaab
0aaaac
1aaaad
0aaaae

#485000
0aaaaa

#490000
1aaaaa
0aaaab
1aaaac
0aaaad
1aaaae
1aaaaf
0aaaag
1aaaar
0aaaas
0aaaav
1aaaaw

#495000
0aaaaa

#500000
1aaaaa
0aaaaf
1aaaag
1aaaah
0aaaai

#505000
0aaaaa

#510000
1aaaaa
0aaaah
1aaaai
1aaaaj
0aaaak
1aaabb
0aaabc

#515000
0aaaaa

#520000
1aaaaa
0aaaaj
1aaaak

#525000
0aaaaa

#530000
1aaaaa
1aaaab
0aaaac
1aaaad
0aaaae
1aaaal
0aaaam
1aaaan
0aaaao
0aaaar
1aaaas
1aaaav
0aaaaw
0aaabf
1aaabg

#535000
0aaaaa

#540000
1aaaaa
0aaaab
1aaaac
0aaaad
1aaaae
1aaaaf
0aaaag
0aaaal
1aaaam
0aaaan
1aaaao
1aaaap
0aaaaq
1aaaar
0aaaas
0aaaav
1aaaaw

#545000
0aaaaa

#550000
1aaaaa
0aaaaf
1aaaag
1aaaah
0aaaai
0aaaap
1aaaaq
1aaaat
0aaaau
0aaabb
1aaabc

#555000
0aaaaa

#560000
1aaaaa
0aaaah
1aaaai
1aaaaj
0aaaak
1aaabb
0aaabc

#565000
0aaaaa

#570000
1aaaaa
0aaaaj
1aaaak
0aaaat
1aaaau
1aaaaz
0aaaba
0aaabb
1aaabc
0aaabg
1aaabh

#575000
0aaaaa

#580000
1aaaaa
0aaaar
1aaaas
1aaaav
0aaaaw
1aaabb
0aaabc

#585000
0aaaaa

#590000
1aaaaa
0aaabb
1aaabc

#595000
0aaaaa

#600000
1aaaaa
0aaaaz
1aaaba
1aaabb
0aaabc

#605000
0aaaaa

#610000
1aaaaa
0aaabb
1aaabc

#615000
0aaaaa

#620000
1aaaaa

#625000
0aaaaa

#630000
1aaaaa

#635000
0aaaaa

#640000
1aaaaa

#645000
0aaaaa

#650000
1aaaaa

#655000
0aaaaa

#660000
1aaaaa
b10 aaabd
b0 aaabe
1aaabf
0aaabh

#665000
0aaaaa

#670000
1aaaaa

#675000
0aaaaa

#680000
1aaaaa

#685000
0aaaaa

#690000
1aaaaa

#695000
0aaaaa

#700000
1aaaaa
1aaaab
0aaaac
1aaaad
0aaaae

#705000
0aaaaa

#710000
1aaaaa
0aaaab
1aaaac
0aaaad
1aaaae
1aaaaf
0aaaag
1aaaar
0aaaas
0aaaav
1aaaaw

#715000
0aaaaa

#720000
1aaaaa
0aaaaf
1aaaag
1aaaah
0aaaai

#725000
0aaaaa

#730000
1aaaaa
0aaaah
1aaaai
1aaaaj
0aaaak
1aaabb
0aaabc

#735000
0aaaaa

#740000
1aaaaa
0aaaaj
1aaaak

#745000
0aaaaa

#750000
1aaaaa
0aaaar
1aaaas
1aaaav
0aaaaw
0aaabf
1aaabg

#755000
0aaaaa

#760000
1aaaaa
1aaaab
0aaaac
1aaaad
0aaaae

#765000
0aaaaa

#770000
1aaaaa
0aaaab
1aaaac
0aaaad
1aaaae
1aaaaf
0aaaag
1aaaar
0aaaas
0aaaav
1aaaaw
0aaabb
1aaabc

#775000
0aaaaa

#780000
1aaaaa
0aaaaf
1aaaag
1aaaah
0aaaai

#785000
0aaaaa

#790000
1aaaaa
0aaaah
1aaaai
1aaaaj
0aaaak
1aaabb
0aaabc
0aaabg
1aaabh

#795000
0aaaaa

#800000
1aaaaa
0aaaaj
1aaaak

#805000
0aaaaa

#810000
1aaaaa
0aaaar
1aaaas
1aaaav
0aaaaw

#815000
0aaaaa

#820000
1aaaaa

#825000
0aaaaa

#830000
1aaaaa
0aaabb
1aaabc

#835000
0aaaaa

#840000
1aaaaa

#845000
0aaaaa

#850000
1aaaaa

#855000
0aaaaa

#860000
1aaaaa

#865000
0aaaaa

#870000
1aaaaa

#875000
0aaaaa

#880000
1aaaaa
b1 aaabe
1aaabf
0aaabh

#885000
0aaaaa

#890000
1aaaaa

#895000
0aaaaa

#900000
1aaaaa

#905000
0aaaaa

#910000
1aaaaa

#915000
0aaaaa

#920000
1aaaaa
1aaaab
0aaaac
1aaaad
0aaaae

#925000
0aaaaa

#930000
1aaaaa
0aaaab
1aaaac
0aaaad
1aaaae
1aaaaf
0aaaag
1aaaar
0aaaas
0aaaav
1aaaaw

#935000
0aaaaa

#940000
1aaaaa
0aaaaf
1aaaag
1aaaah
0aaaai

#945000
0aaaaa

#950000
1aaaaa
0aaaah
1aaaai
1aaaaj
0aaaak
1aaabb
0aaabc

#955000
0aaaaa

#960000
1aaaaa
0aaaaj
1aaaak

#965000
0aaaaa

#970000
1aaaaa
1aaaal
0aaaam
1aaaan
0aaaao
0aaaar
1aaaas
1aaaav
0aaaaw
0aaabf
1aaabg

#975000
0aaaaa

#980000
1aaaaa
1aaaab
0aaaac
1aaaad
0aaaae
0aaaal
1aaaam
0aaaan
1aaaao
1aaaap
0aaaaq

#985000
0aaaaa

#990000
1aaaaa
0aaaab
1aaaac
0aaaad
1aaaae
1aaaaf
0aaaag
0aaaap
1aaaaq
1aaaar
0aaaas
1aaaat
0aaaau
0aaaav
1aaaaw
0aaabb
1aaabc

#995000
0aaaaa

#1000000
1aaaaa
0aaaaf
1aaaag
1aaaah
0aaaai

#1005000
0aaaaa

#1010000
1aaaaa
0aaaah
1aaaai
1aaaaj
0aaaak
0aaaat
1aaaau
1aaaaz
0aaaba
0aaabg
1aaabh

#1015000
0aaaaa

#1020000
1aaaaa
0aaaaj
1aaaak
1aaabb
0aaabc

#1025000
0aaaaa

#1030000
1aaaaa
0aaaar
1aaaas
1aaaav
0aaaaw
0aaabb
1aaabc

#1035000
0aaaaa

#1040000
1aaaaa

#1045000
0aaaaa

#1050000
1aaaaa
0aaaaz
1aaaba
1aaabb
0aaabc

#1055000
0aaaaa

#1060000
1aaaaa
0aaabb
1aaabc

#1065000
0aaaaa

#1070000
1aaaaa

#1075000
0aaaaa

#1080000
1aaaaa

#1085000
0aaaaa

#1090000
1aaaaa

#1095000
0aaaaa

#1100000
1aaaaa
b10 aaabe
1aaabf
0aaabh

#1105000
0aaaaa

#1110000
1aaaaa

#1115000
0aaaaa

#1120000
1aaaaa

#1125000
0aaaaa

#1130000
1aaaaa

#1135000
0aaaaa

#1140000
1aaaaa
1aaaab
0aaaac
1aaaad
0aaaae

#1145000
0aaaaa

#1150000
1aaaaa
0aaaab
1aaaac
0aaaad
1aaaae
1aaaaf
0aaaag
1aaaar
0aaaas
0aaaav
1aaaaw

#1155000
0aaaaa

#1160000
1aaaaa
0aaaaf
1aaaag
1aaaah
0aaaai

#1165000
0aaaaa

#1170000
1aaaaa
0aaaah
1aaaai
1aaaaj
0aaaak
1aaabb
0aaabc

#1175000
0aaaaa

#1180000
1aaaaa
0aaaaj
1aaaak

#1185000
0aaaaa

#1190000
1aaaaa
0aaaar
1aaaas
1aaaav
0aaaaw
0aaabf
1aaabg

#1195000
0aaaaa

#1200000
1aaaaa
1aaaab
0aaaac
1aaaad
0aaaae
1aaaal
0aaaam
1aaaan
0aaaao

#1205000
0aaaaa

#1210000
1aaaaa
0aaaab
1aaaac
0aaaad
1aaaae
1aaaaf
0aaaag
0aaaal
1aaaam
0aaaan
1aaaao
1aaaap
0aaaaq
1aaaar
0aaaas
0aaaav
1aaaaw
0aaabb
1aaabc

#1215000
0aaaaa

#1220000
1aaaaa
0aaaaf
1aaaag
1aaaah
0aaaai
0aaaap
1aaaaq
1aaaat
0aaaau

#1225000
0aaaaa

#1230000
1aaaaa
0aaaah
1aaaai
1aaaaj
0aaaak
1aaabb
0aaabc
0aaabg
1aaabh

#1235000
0aaaaa

#1240000
1aaaaa
0aaaaj
1aaaak
0aaaat
1aaaau
1aaaaz
0aaaba
0aaabb
1aaabc

#1245000
0aaaaa

#1250000
1aaaaa
0aaaar
1aaaas
1aaaav
0aaaaw
1aaabb
0aaabc

#1255000
0aaaaa

#1260000
1aaaaa
0aaabb
1aaabc

#1265000
0aaaaa

#1270000
1aaaaa
0aaaaz
1aaaba
1aaabb
0aaabc

#1275000
0aaaaa

#1280000
1aaaaa
0aaabb
1aaabc

#1285000
0aaaaa

#1290000
1aaaaa

#1295000
0aaaaa

#1300000
1aaaaa

#1305000
0aaaaa

#1310000
1aaaaa

#1315000
0aaaaa

#1320000
1aaaaa
b11 aaabd
b0 aaabe
1aaabf
0aaabh

#1325000
0aaaaa

#1330000
1aaaaa

#1335000
0aaaaa

#1340000
1aaaaa

#1345000
0aaaaa

#1350000
1aaaaa

#1355000
0aaaaa

#1360000
1aaaaa
1aaaab
0aaaac
1aaaad
0aaaae

#1365000
0aaaaa

#1370000
1aaaaa
0aaaab
1aaaac
0aaaad
1aaaae
1aaaaf
0aaaag
1aaaar
0aaaas
0aaaav
1aaaaw

#1375000
0aaaaa

#1380000
1aaaaa
0aaaaf
1aaaag
1aaaah
0aaaai

#1385000
0aaaaa

#1390000
1aaaaa
0aaaah
1aaaai
1aaaaj
0aaaak
1aaabb
0aaabc

#1395000
0aaaaa

#1400000
1aaaaa
0aaaaj
1aaaak

#1405000
0aaaaa

#1410000
1aaaaa
1aaaab
0aaaac
1aaaad
0aaaae
0aaaar
1aaaas
1aaaav
0aaaaw
0aaabf
1aaabg

#1415000
0aaaaa

#1420000
1aaaaa
1aaaaf
0aaaag
1aaaar
0aaaas
0aaaav
1aaaaw

#1425000
0aaaaa

#1430000
1aaaaa
0aaaab
1aaaac
0aaaad
1aaaae
1aaaah
0aaaai
0aaaar
1aaaas
0aaabb
1aaabc

#1435000
0aaaaa

#1440000
1aaaaa
0aaaaf
1aaaag
1aaaaj
0aaaak
1aaaar
0aaaas
1aaabb
0aaabc

#1445000
0aaaaa

#1450000
1aaaaa
0aaaah
1aaaai
0aaabb
1aaabc
0aaabg
1aaabh

#1455000
0aaaaa

#1460000
1aaaaa
0aaaaj
1aaaak
0aaaar
1aaaas
1aaaav
0aaaaw
1aaabb
0aaabc

#1465000
0aaaaa

#1470000
1aaaaa
1aaaar
0aaaas

#1475000
0aaaaa

#1480000
1aaaaa
0aaaar
1aaaas
0aaabb
1aaabc

#1485000
0aaaaa

#1490000
1aaaaa
1aaabb
0aaabc

#1495000
0aaaaa

#1500000
1aaaaa
0aaabb
1aaabc

#1505000
0aaaaa

#1510000
1aaaaa

#1515000
0aaaaa

#1520000
1aaaaa

#1525000
0aaaaa

#1530000
1aaaaa

#1535000
0aaaaa

#1540000
1aaaaa
b1 aaabe
1aaabf
0aaabh

#1545000
0aaaaa

#1550000
1aaaaa

#1555000
0aaaaa

#1560000
1aaaaa

#1565000
0aaaaa

#1570000
1aaaaa

#1575000
0aaaaa

#1580000
1aaaaa
1aaaab
0aaaac
1aaaad
0aaaae

#1585000
0aaaaa

#1590000
1aaaaa
0aaaab
1aaaac
0aaaad
1aaaae
1aaaaf
0aaaag
1aaaar
0aaaas
0aaaav
1aaaaw

#1595000
0aaaaa

#1600000
1aaaaa
0aaaaf
1aaaag
1aaaah
0aaaai

#1605000
0aaaaa

#1610000
1aaaaa
0aaaah
1aaaai
1aaaaj
0aaaak
1aaabb
0aaabc

#1615000
0aaaaa

#1620000
1aaaaa
0aaaaj
1aaaak

#1625000
0aaaaa

#1630000
1aaaaa
1aaaab
0aaaac
1aaaad
0aaaae
1aaaal
0aaaam
1aaaan
0aaaao
0aaaar
1aaaas
1aaaav
0aaaaw
0aaabf
1aaabg

#1635000
0aaaaa

#1640000
1aaaaa
1aaaaf
0aaaag
0aaaal
1aaaam
0aaaan
1aaaao
1aaaap
0aaaaq
1aaaar
0aaaas
0aaaav
1aaaaw

#1645000
0aaaaa

#1650000
1aaaaa
0aaaab
1aaaac
0aaaad
1aaaae
1aaaah
0aaaai
0aaaap
1aaaaq
0aaaar
1aaaas
1aaaat
0aaaau
0aaabb
1aaabc

#1655000
0aaaaa

#1660000
1aaaaa
0aaaaf
1aaaag
1aaaaj
0aaaak
1aaaar
0aaaas
1aaabb
0aaabc

#1665000
0aaaaa

#1670000
1aaaaa
0aaaah
1aaaai
0aaaat
1aaaau
0aaabg
1aaabh

#1675000
0aaaaa

#1680000
1aaaaa
0aaaaj
1aaaak
0aaaar
1aaaas
1aaaav
0aaaaw
1aaaaz
0aaaba
0aaabb
1aaabc

#1685000
0aaaaa

#1690000
1aaaaa
1aaaar
0aaaas

#1695000
0aaaaa

#1700000
1aaaaa
0aaaar
1aaaas
0aaaaz
1aaaba
1aaabb
0aaabc

#1705000
0aaaaa

#1710000
1aaaaa

#1715000
0aaaaa

#1720000
1aaaaa
0aaabb
1aaabc

#1725000
0aaaaa

#1730000
1aaaaa

#1735000
0aaaaa

#1740000
1aaaaa

#1745000
0aaaaa

#1750000
1aaaaa

#1755000
0aaaaa

#1760000
1aaaaa
b10 aaabe
1aaabf
0aaabh

#1765000
0aaaaa

#1770000
1aaaaa

#1775000
0aaaaa

#1780000
1aaaaa

#1785000
0aaaaa

#1790000
1aaaaa

#1795000
0aaaaa

#1800000
1aaaaa
1aaaab
0aaaac
1aaaad
0aaaae

#1805000
0aaaaa

#1810000
1aaaaa
0aaaab
1aaaac
0aaaad
1aaaae
1aaaaf
0aaaag
1aaaar
0aaaas
0aaaav
1aaaaw

#1815000
0aaaaa

#1820000
1aaaaa
0aaaaf
1aaaag
1aaaah
0aaaai

#1825000
0aaaaa

#1830000
1aaaaa
0aaaah
1aaaai
1aaaaj
0aaaak
1aaabb
0aaabc

#1835000
0aaaaa

#1840000
1aaaaa
0aaaaj
1aaaak

#1845000
0aaaaa

#1850000
1aaaaa
1aaaab
0aaaac
1aaaad
0aaaae
0aaaar
1aaaas
1aaaav
0aaaaw
0aaabf
1aaabg

#1855000
0aaaaa

#1860000
1aaaaa
1aaaaf
0aaaag
1aaaal
0aaaam
1aaaan
0aaaao
1aaaar
0aaaas
0aaaav
1aaaaw

#1865000
0aaaaa

#1870000
1aaaaa
0aaaab
1aaaac
0aaaad
1aaaae
1aaaah
0aaaai
0aaaal
1aaaam
0aaaan
1aaaao
1aaaap
0aaaaq
0aaaar
1aaaas
0aaabb
1aaabc

#1875000
0aaaaa

#1880000
1aaaaa
0aaaaf
1aaaag
1aaaaj
0aaaak
0aaaap
1aaaaq
1aaaar
0aaaas
1aaaat
0aaaau
1aaabb
0aaabc

#1885000
0aaaaa

#1890000
1aaaaa
0aaaah
1aaaai
0aaabb
1aaabc
0aaabg
1aaabh

#1895000
0aaaaa

#1900000
1aaaaa
0aaaaj
1aaaak
0aaaar
1aaaas
0aaaat
1aaaau
1aaaav
0aaaaw
1aaaaz
0aaaba

#1905000
0aaaaa

#1910000
1aaaaa
1aaaar
0aaaas
1aaabb
0aaabc

#1915000
0aaaaa

#1920000
1aaaaa
0aaaar
1aaaas
0aaaaz
1aaaba

#1925000
0aaaaa

#1930000
1aaaaa

#1935000
0aaaaa

#1940000
1aaaaa
0aaabb
1aaabc

#1945000
0aaaaa

#1950000
1aaaaa

#1955000
0aaaaa

#1960000
1aaaaa

#1965000
0aaaaa

#1970000
1aaaaa

#1975000
0aaaaa

#1980000
1aaaaa
b11 aaabe
1aaabf
0aaabh

#1985000
0aaaaa

#1990000
1aaaaa

#1995000
0aaaaa

#2000000
1aaaaa

#2005000
0aaaaa

#2010000
1aaaaa

#2015000
0aaaaa

#2020000
1aaaaa
1aaaab
0aaaac
1aaaad
0aaaae

#2025000
0aaaaa

#2030000
1aaaaa
0aaaab
1aaaac
0aaaad
1aaaae
1aaaaf
0aaaag
1aaaar
0aaaas
0aaaav
1aaaaw

#2035000
0aaaaa

#2040000
1aaaaa
0aaaaf
1aaaag
1aaaah
0aaaai

#2045000
0aaaaa

#2050000
1aaaaa
0aaaah
1aaaai
1aaaaj
0aaaak
1aaabb
0aaabc

#2055000
0aaaaa

#2060000
1aaaaa
0aaaaj
1aaaak

#2065000
0aaaaa

#2070000
1aaaaa
1aaaab
0aaaac
1aaaad
0aaaae
1aaaal
0aaaam
1aaaan
0aaaao
0aaaar
1aaaas
1aaaav
0aaaaw
0aaabf
1aaabg

#2075000
0aaaaa

#2080000
1aaaaa
1aaaaf
0aaaag
1aaaap
0aaaaq
1aaaar
0aaaas
0aaaav
1aaaaw

#2085000
0aaaaa

#2090000
1aaaaa
0aaaab
1aaaac
0aaaad
1aaaae
1aaaah
0aaaai
0aaaal
1aaaam
0aaaan
1aaaao
0aaaar
1aaaas
1aaaat
0aaaau
0aaabb
1aaabc

#2095000
0aaaaa

#2100000
1aaaaa
0aaaaf
1aaaag
1aaaaj
0aaaak
0aaaap
1aaaaq
1aaaar
0aaaas
0aaaat
1aaaau
1aaaax
0aaaay
1aaabb
0aaabc

#2105000
0aaaaa

#2110000
1aaaaa
0aaaah
1aaaai
0aaabg
1aaabh

#2115000
0aaaaa

#2120000
1aaaaa
0aaaaj
1aaaak
0aaaar
1aaaas
1aaaat
0aaaau
1aaaav
0aaaaw
0aaaax
1aaaay

#2125000
0aaaaa

#2130000
1aaaaa
1aaaar
0aaaas
0aaaat
1aaaau

#2135000
0aaaaa

#2140000
1aaaaa
0aaaar
1aaaas

#2145000
0aaaaa

#2150000
1aaaaa

#2155000
0aaaaa

#2160000
1aaaaa
0aaabb
1aaabc

#2165000
0aaaaa

#2170000
1aaaaa

#2175000
0aaaaa

#2180000
1aaaaa

#2185000
0aaaaa

#2190000
1aaaaa

#2195000
0aaaaa

#2200000
1aaaaa
b100 aaabd
b0 aaabe
1aaabf
0aaabh

#2205000
0aaaaa

#2210000
1aaaaa

#2215000
0aaaaa

#2220000
1aaaaa

#2225000
0aaaaa

#2230000
1aaaaa

#2235000
0aaaaa

#2240000
1aaaaa
1aaaab
0aaaac
1aaaad
0aaaae

#2245000
0aaaaa

#2250000
1aaaaa
0aaaab
1aaaac
0aaaad
1aaaae
1aaaaf
0aaaag
1aaaar
0aaaas
0aaaav
1aaaaw

#2255000
0aaaaa

#2260000
1aaaaa
0aaaaf
1aaaag
1aaaah
0aaaai

#2265000
0aaaaa

#2270000
1aaaaa
0aaaah
1aaaai
1aaaaj
0aaaak
1aaabb
0aaabc

#2275000
0aaaaa

#2280000
1aaaaa
0aaaaj
1aaaak

#2285000
0aaaaa

#2290000
1aaaaa
0aaaar
1aaaas
1aaaav
0aaaaw
0aaabf
1aaabg

#2295000
0aaaaa

#2300000
1aaaaa

#2305000
0aaaaa

#2310000
1aaaaa
1aaaab
0aaaac
1aaaad
0aaaae
0aaabb
1aaabc

#2315000
0aaaaa

#2320000
1aaaaa
0aaaab
1aaaac
0aaaad
1aaaae
1aaaaf
0aaaag
1aaaar
0aaaas
0aaaav
1aaaaw

#2325000
0aaaaa

#2330000
1aaaaa
0aaaaf
1aaaag
1aaaah
0aaaai
0aaabg
1aaabh

#2335000
0aaaaa

#2340000
1aaaaa
0aaaah
1aaaai
1aaaaj
0aaaak
1aaabb
0aaabc

#2345000
0aaaaa

#2350000
1aaaaa
0aaaaj
1aaaak

#2355000
0aaaaa

#2360000
1aaaaa
0aaaar
1aaaas
1aaaav
0aaaaw

#2365000
0aaaaa

#2370000
1aaaaa

#2375000
0aaaaa

#2380000
1aaaaa
0aaabb
1aaabc

#2385000
0aaaaa

#2390000
1aaaaa

#2395000
0aaaaa

#2400000
1aaaaa

#2405000
0aaaaa

#2410000
1aaaaa

#2415000
0aaaaa

#2420000
1aaaaa
b1 aaabe
1aaabf
0aaabh

#2425000
0aaaaa

#2430000
1aaaaa

#2435000
0aaaaa

#2440000
1aaaaa

#2445000
0aaaaa

#2450000
1aaaaa

#2455000
0aaaaa

#2460000
1aaaaa
1aaaab
0aaaac
1aaaad
0aaaae

#2465000
0aaaaa

#2470000
1aaaaa
0aaaab
1aaaac
0aaaad
1aaaae
1aaaaf
0aaaag
1aaaar
0aaaas
0aaaav
1aaaaw

#2475000
0aaaaa

#2480000
1aaaaa
0aaaaf
1aaaag
1aaaah
0aaaai

#2485000
0aaaaa

#2490000
1aaaaa
0aaaah
1aaaai
1aaaaj
0aaaak
1aaabb
0aaabc

#2495000
0aaaaa

#2500000
1aaaaa
0aaaaj
1aaaak

#2505000
0aaaaa

#2510000
1aaaaa
1aaaal
0aaaam
1aaaan
0aaaao
0aaaar
1aaaas
1aaaav
0aaaaw
0aaabf
1aaabg

#2515000
0aaaaa

#2520000
1aaaaa
0aaaal
1aaaam
0aaaan
1aaaao
1aaaap
0aaaaq

#2525000
0aaaaa

#2530000
1aaaaa
1aaaab
0aaaac
1aaaad
0aaaae
0aaaap
1aaaaq
1aaaat
0aaaau
0aaabb
1aaabc

#2535000
0aaaaa

#2540000
1aaaaa
0aaaab
1aaaac
0aaaad
1aaaae
1aaaaf
0aaaag
1aaaar
0aaaas
0aaaav
1aaaaw

#2545000
0aaaaa

#2550000
1aaaaa
0aaaaf
1aaaag
1aaaah
0aaaai
0aaaat
1aaaau
1aaabb
0aaabc
0aaabg
1aaabh

#2555000
0aaaaa

#2560000
1aaaaa
0aaaah
1aaaai
1aaaaj
0aaaak
1aaaaz
0aaaba
0aaabb
1aaabc

#2565000
0aaaaa

#2570000
1aaaaa
0aaaaj
1aaaak

#2575000
0aaaaa

#2580000
1aaaaa
0aaaar
1aaaas
1aaaav
0aaaaw

#2585000
0aaaaa

#2590000
1aaaaa

#2595000
0aaaaa

#2600000
1aaaaa
0aaaaz
1aaaba
1aaabb
0aaabc

#2605000
0aaaaa

#2610000
1aaaaa
0aaabb
1aaabc

#2615000
0aaaaa

#2620000
1aaaaa

#2625000
0aaaaa

#2630000
1aaaaa

#2635000
0aaaaa

#2640000
1aaaaa
b10 aaabe
1aaabf
0aaabh

#2645000
0aaaaa

#2650000
1aaaaa

#2655000
0aaaaa

#2660000
1aaaaa

#2665000
0aaaaa

#2670000
1aaaaa

#2675000
0aaaaa

#2680000
1aaaaa
1aaaab
0aaaac
1aaaad
0aaaae

#2685000
0aaaaa

#2690000
1aaaaa
0aaaab
1aaaac
0aaaad
1aaaae
1aaaaf
0aaaag
1aaaar
0aaaas
0aaaav
1aaaaw

#2695000
0aaaaa

#2700000
1aaaaa
0aaaaf
1aaaag
1aaaah
0aaaai

#2705000
0aaaaa

#2710000
1aaaaa
0aaaah
1aaaai
1aaaaj
0aaaak
1aaabb
0aaabc

#2715000
0aaaaa

#2720000
1aaaaa
0aaaaj
1aaaak

#2725000
0aaaaa

#2730000
1aaaaa
0aaaar
1aaaas
1aaaav
0aaaaw
0aaabf
1aaabg

#2735000
0aaaaa

#2740000
1aaaaa
1aaaal
0aaaam
1aaaan
0aaaao

#2745000
0aaaaa

#2750000
1aaaaa
1aaaab
0aaaac
1aaaad
0aaaae
0aaaal
1aaaam
0aaaan
1aaaao
1aaaap
0aaaaq
0aaabb
1aaabc

#2755000
0aaaaa

#2760000
1aaaaa
0aaaab
1aaaac
0aaaad
1aaaae
1aaaaf
0aaaag
0aaaap
1aaaaq
1aaaar
0aaaas
1aaaat
0aaaau
0aaaav
1aaaaw

#2765000
0aaaaa

#2770000
1aaaaa
0aaaaf
1aaaag
1aaaah
0aaaai
0aaabg
1aaabh

#2775000
0aaaaa

#2780000
1aaaaa
0aaaah
1aaaai
1aaaaj
0aaaak
0aaaat
1aaaau
1aaaaz
0aaaba

#2785000
0aaaaa

#2790000
1aaaaa
0aaaaj
1aaaak
1aaabb
0aaabc

#2795000
0aaaaa

#2800000
1aaaaa
0aaaar
1aaaas
1aaaav
0aaaaw
0aaabb
1aaabc

#2805000
0aaaaa

#2810000
1aaaaa

#2815000
0aaaaa

#2820000
1aaaaa
0aaaaz
1aaaba
1aaabb
0aaabc

#2825000
0aaaaa

#2830000
1aaaaa
0aaabb
1aaabc

#2835000
0aaaaa

#2840000
1aaaaa

#2845000
0aaaaa

#2850000
1aaaaa

#2855000
0aaaaa

#2860000
1aaaaa
b11 aaabe
1aaabf
0aaabh

#2865000
0aaaaa

#2870000
1aaaaa

#2875000
0aaaaa

#2880000
1aaaaa

#2885000
0aaaaa

#2890000
1aaaaa

#2895000
0aaaaa

#2900000
1aaaaa
1aaaab
0aaaac
1aaaad
0aaaae

#2905000
0aaaaa

