mustadd.vcd
$date
     Jul 04, 2024       16:52:52
$end

$version
 SystemC 2.3.4-Accellera --- Jul  1 2024 10:23:18
$end

$timescale
     1 ps
$end

$scope module SystemC $end
$var wire    1  aaaaa  clock       $end
$var wire    1  aaaab  a       $end
$var wire    1  aaaac  a_bar       $end
$var wire    1  aaaad  b       $end
$var wire    1  aaaae  b_bar       $end
$var wire    1  aaaaf  c       $end
$var wire    1  aaaag  c_bar       $end
$var wire    1  aaaah  s       $end
$var wire    1  aaaai  s_bar       $end
$var wire    1  aaaaj  u       $end
$var wire    1  aaaak  u_bar       $end
$upscope $end
$enddefinitions  $end

$comment
All initial values are dumped below at time 0 sec = 0 timescale units.
$end

$dumpvars
1aaaaa
0aaaab
1aaaac
0aaaad
1aaaae
0aaaaf
1aaaag
0aaaah
0aaaai
0aaaaj
0aaaak
$end

#5000
0aaaaa

#10000
1aaaaa
1aaaai

#15000
0aaaaa

#20000
1aaaaa
1aaaab
0aaaac
1aaaad
0aaaae

#25000
0aaaaa

#30000
1aaaaa
0aaaab
1aaaac
1aaaaf
0aaaag
1aaaaj
1aaaak

#35000
0aaaaa

#40000
1aaaaa
1aaaab
0aaaac
0aaaad
1aaaae

#45000
0aaaaa

#50000
1aaaaa
1aaaad
0aaaae
0aaaaj
0aaaak

#55000
0aaaaa

#60000
1aaaaa
0aaaab
1aaaac
0aaaad
1aaaae
1aaaah
0aaaai

#65000
0aaaaa

#70000
1aaaaa
0aaaaf
1aaaag

#75000
0aaaaa

#80000
1aaaaa
1aaaad
0aaaae
0aaaah
1aaaai
1aaaaj
1aaaak

#85000
0aaaaa

#90000
1aaaaa
1aaaab
0aaaac
0aaaad
1aaaae
1aaaah
0aaaai

#95000
0aaaaa

#100000
1aaaaa
0aaaab
1aaaac
0aaaaj
0aaaak

#105000
0aaaaa

#110000
1aaaaa
0aaaah
1aaaai

