neuron_hp3_trace.vcd
$date
     Jul 04, 2024       16:52:52
$end

$version
 SystemC 2.3.4-Accellera --- Jul  1 2024 10:23:18
$end

$timescale
     1 ps
$end

$scope module SystemC $end
$var wire    1  aaaaa  clock       $end
$var wire    1  aaaab  dendrite_1       $end
$var wire    1  aaaac  dendrite_2       $end
$var wire    1  aaaad  dendrite_3       $end
$var wire    1  aaaae  synapse       $end
$upscope $end
$enddefinitions  $end

$comment
All initial values are dumped below at time 0 sec = 0 timescale units.
$end

$dumpvars
1aaaaa
0aaaab
0aaaac
0aaaad
0aaaae
$end

#5000
0aaaaa

#10000
1aaaaa
1aaaad

#15000
0aaaaa

#20000
1aaaaa
1aaaac
0aaaad

#25000
0aaaaa

#30000
1aaaaa
1aaaad
1aaaae

#35000
0aaaaa

#40000
1aaaaa
1aaaab
0aaaac
0aaaad
0aaaae

#45000
0aaaaa

#50000
1aaaaa
1aaaad
1aaaae

#55000
0aaaaa

#60000
1aaaaa
1aaaac
0aaaad

#65000
0aaaaa

#70000
1aaaaa
1aaaad

#75000
0aaaaa

#80000
1aaaaa
0aaaab
0aaaac
0aaaad
0aaaae

